{
  "type": "service_account",
  "project_id": "movindraw",
  "private_key_id": "9f99b09707c3b5e9ba5b37dfd43b9ac6ee59f80e",
  "private_key": "-----BEGIN PRIVATE KEY-----\nMIIEvQIBADANBgkqhkiG9w0BAQEFAASCBKcwggSjAgEAAoIBAQDL9sjXIUnhs06i\n8yQr4NB2TdSYxuq0A97eNMRHxWWENIeTZg+43/IU9jKKUbXlvoI/fik+Gar+tm5L\ntd/isU4VxaGoCJSJpFWd/S3O5JkmzEMawLQcYP2YieMFOEpFIwG8DMtSY8FurBkb\nIRLAOvH0hgPJkpRKt4qWCTGeq/kCvCA6X6euicjk7Ogxfs+JmnnK9zZB6RdpB8Fo\n/wjUMkw9nkEuERio6tGLKfiDYhnXSCO9bJSuCjRrKD1f/31xu0q1DB2fH92+iOG+\nisTrFjZNstMv+4jiuVBqYRoLc10UqA/mZNzEKDwyobpcZvX0y0x1cxWL6orZpGLP\ny12Uc1hRAgMBAAECggEACF+7BFObXZ0LroagYp2L236TqtvYWyCRTfLRR+/RnJte\nQVnKbZUCsrP+tFV5XAvNu8r7iR9bSRK+/aRjgzJzvfK3sc8b35iP1BEm6ECUDd7r\nJqIYpvVftgt7ts02RedDeQe2sYzTTk6aJ4Ysp5gn8snNhiEqrdRiKAmruAuwGRnC\nvquHTqAQSEYXzV2Ns+XNHbRN1UBND3PKZ0U5XCuxK1BeB8FO4V+DyHhcsIYkpvpZ\niS7sdNirybl/hXFrR4UWgX6Te5bQDVZjn7651AMEYc4XvDv0cSdDCwNhwmUoscbW\nbv1XcBJwJJ4pGUFLOE1UqWOuzy6L68JDua2tFQth4QKBgQD4BQ94/akZnhrUa3e/\nNbFJSIP2RHAhMay4faWfRqrw8YrP4s2+rIoBv35cZEP2w7eIij/2AdXroGqme7UD\nHqjJ0Y3BBbUWqPRrHbFolv6LLKyObvuBJEaAIJ3Y0iWu5CjtldZOfuLGNIFcOnbs\nFAFSJdutFh/QiBnPpenm1MSL8QKBgQDShtYs86sfPV2iAqKv+fPtbWO7btEQc5tv\nw1jsl7K4rGkiNObrSyYQW4NBCHKvO/oF+hYfgBNUC+2MPcjWFXS/fyzl0L6OMsPC\nUdLFX5oEvCPAy5ESIksk5EIdJ/it86ZOlyaKqdNSiOMqCzuE4gPbnkWJVT+20pvf\n4k0LtzlyYQKBgF3/XPvX9yy0VSrIiBu5t7U0fH7rNSv/bZyGUizpVYP3p0pehOeM\n8Mj00GknvvJY/sgKzW7pBzBEHed23wWNqx7CAt1y0k0CP5ARMtmW0GXiyos42Kz7\nGJUax3gTPSDpa/GPZiddw4inAZf4uHWEp3OA0Z7p0ajwzAd8tAc+ADehAoGBAMd6\nv+HkGNcG/HuQZ7q66mikaAWnoS0nfbbOsKmtq8jUhOHGoq98i1qge6PZb2GfQO78\n4o2Ce839Z16lBHHl7rOsu0wfGRAABgFQKpieV3/5DR+XQ6SdHfqc1hBuWXHqFkEN\nc5WcCQKBdk3WStVEm0czlsvkHPUMZmojMcHSIPrBAoGAIKj9SObRUfgLeLApPRHC\nwRSp8XU4u/mW4Cy5/v3URDHlQhwXGB8xjaiuAHac0rmDuOK53XVcxp1HLp9ySMLq\nIz0iLQjJPseO/UR+FkD8nL755cFVujCzqqCpWITCSUZoeMUj8nNdBT9MslbFcXfG\nP8RZ8q2mxH9+yd7wIANQrOU=\n-----END PRIVATE KEY-----\n",
  "client_email": "firebase-adminsdk-nvz10@movindraw.iam.gserviceaccount.com",
  "client_id": "112071916673454229088",
  "auth_uri": "https://accounts.google.com/o/oauth2/auth",
  "token_uri": "https://oauth2.googleapis.com/token",
  "auth_provider_x509_cert_url": "https://www.googleapis.com/oauth2/v1/certs",
  "client_x509_cert_url": "https://www.googleapis.com/robot/v1/metadata/x509/firebase-adminsdk-nvz10%40movindraw.iam.gserviceaccount.com"
}
